dev/0515_uvm_2/simv.log
Command: /home/hedu24/dev/0515_uvm_2/./simv +UVM_TESTNAME=test -l simv.log
Chronologic VCS simulator copyright 1991-2024
Contains Synopsys proprietary information.
Compiler version W-2024.09-SP1_Full64; Runtime version W-2024.09-SP1_Full64;  May 16 09:39 2025
UVM_INFO /tools/synopsys/vcs/W-2024.09-SP1/etc/uvm-1.2/base/uvm_root.svh(402) @ 0: reporter [UVM/RELNOTES] 
----------------------------------------------------------------
UVM-1.2.Synopsys
(C) 2007-2014 Mentor Graphics Corporation
(C) 2007-2014 Cadence Design Systems, Inc.
(C) 2006-2014 Synopsys, Inc.
(C) 2011-2013 Cypress Semiconductor Corp.
(C) 2013-2014 NVIDIA Corporation
----------------------------------------------------------------

  ***********       IMPORTANT RELEASE NOTES         ************

  You are using a version of the UVM library that has been compiled
  with `UVM_NO_DEPRECATED undefined.
  See http://www.eda.org/svdb/view.php?id=3313 for more details.

  You are using a version of the UVM library that has been compiled
  with `UVM_OBJECT_DO_NOT_NEED_CONSTRUCTOR undefined.
  See http://www.eda.org/svdb/view.php?id=3770 for more details.

      (Specify +UVM_NO_RELNOTES to turn off this notice)

UVM_INFO @ 0: reporter [RNTST] Running test test...

UVM_INFO ./tb/tb_adder.sv(44) @ 0: uvm_test_top.ENV.AGT.SQR@@SEQ [SEQ] adder item to drive a:62, b:75
UVM_INFO ./tb/tb_adder.sv(78) @ 5: uvm_test_top.ENV.AGT.DRV [DRV] Drive DUT a:62, b:75
UVM_INFO ./tb/tb_adder.sv(120) @ 6: uvm_test_top.ENV.AGT.MON [MON] sampled a:62, b:75, y:137
UVM_INFO ./tb/tb_adder.sv(147) @ 6: uvm_test_top.ENV.SCO [SCO] Recived a:62, b:75, y:137
ITEM: (adder_seq_item@588) { a: 'h3e  b: 'h4b  y: 'h89  } 
UVM_INFO ./tb/tb_adder.sv(151) @ 6: uvm_test_top.ENV.SCO [SCO] *** TEST PASSED ***

UVM_INFO ./tb/tb_adder.sv(44) @ 6: uvm_test_top.ENV.AGT.SQR@@SEQ [SEQ] adder item to drive a:181, b:39
UVM_INFO ./tb/tb_adder.sv(78) @ 15: uvm_test_top.ENV.AGT.DRV [DRV] Drive DUT a:181, b:39
UVM_INFO ./tb/tb_adder.sv(120) @ 16: uvm_test_top.ENV.AGT.MON [MON] sampled a:181, b:39, y:220
UVM_INFO ./tb/tb_adder.sv(147) @ 16: uvm_test_top.ENV.SCO [SCO] Recived a:181, b:39, y:220
ITEM: (adder_seq_item@588) { a: 'hb5  b: 'h27  y: 'hdc  } 
UVM_INFO ./tb/tb_adder.sv(151) @ 16: uvm_test_top.ENV.SCO [SCO] *** TEST PASSED ***

UVM_INFO ./tb/tb_adder.sv(44) @ 16: uvm_test_top.ENV.AGT.SQR@@SEQ [SEQ] adder item to drive a:253, b:184
UVM_INFO ./tb/tb_adder.sv(78) @ 25: uvm_test_top.ENV.AGT.DRV [DRV] Drive DUT a:253, b:184
UVM_INFO ./tb/tb_adder.sv(120) @ 26: uvm_test_top.ENV.AGT.MON [MON] sampled a:253, b:184, y:437
UVM_INFO ./tb/tb_adder.sv(147) @ 26: uvm_test_top.ENV.SCO [SCO] Recived a:253, b:184, y:437
ITEM: (adder_seq_item@588) { a: 'hfd  b: 'hb8  y: 'h1b5  } 
UVM_INFO ./tb/tb_adder.sv(151) @ 26: uvm_test_top.ENV.SCO [SCO] *** TEST PASSED ***

UVM_INFO ./tb/tb_adder.sv(44) @ 26: uvm_test_top.ENV.AGT.SQR@@SEQ [SEQ] adder item to drive a:168, b:189
UVM_INFO ./tb/tb_adder.sv(78) @ 35: uvm_test_top.ENV.AGT.DRV [DRV] Drive DUT a:168, b:189
UVM_INFO ./tb/tb_adder.sv(120) @ 36: uvm_test_top.ENV.AGT.MON [MON] sampled a:168, b:189, y:357
UVM_INFO ./tb/tb_adder.sv(147) @ 36: uvm_test_top.ENV.SCO [SCO] Recived a:168, b:189, y:357
ITEM: (adder_seq_item@588) { a: 'ha8  b: 'hbd  y: 'h165  } 
UVM_INFO ./tb/tb_adder.sv(151) @ 36: uvm_test_top.ENV.SCO [SCO] *** TEST PASSED ***

UVM_INFO ./tb/tb_adder.sv(44) @ 36: uvm_test_top.ENV.AGT.SQR@@SEQ [SEQ] adder item to drive a:19, b:134
UVM_INFO ./tb/tb_adder.sv(78) @ 45: uvm_test_top.ENV.AGT.DRV [DRV] Drive DUT a:19, b:134
UVM_INFO ./tb/tb_adder.sv(120) @ 46: uvm_test_top.ENV.AGT.MON [MON] sampled a:19, b:134, y:153
UVM_INFO ./tb/tb_adder.sv(147) @ 46: uvm_test_top.ENV.SCO [SCO] Recived a:19, b:134, y:153
ITEM: (adder_seq_item@588) { a: 'h13  b: 'h86  y: 'h99  } 
UVM_INFO ./tb/tb_adder.sv(151) @ 46: uvm_test_top.ENV.SCO [SCO] *** TEST PASSED ***

UVM_INFO ./tb/tb_adder.sv(44) @ 46: uvm_test_top.ENV.AGT.SQR@@SEQ [SEQ] adder item to drive a:53, b:46
UVM_INFO ./tb/tb_adder.sv(78) @ 55: uvm_test_top.ENV.AGT.DRV [DRV] Drive DUT a:53, b:46
UVM_INFO ./tb/tb_adder.sv(120) @ 56: uvm_test_top.ENV.AGT.MON [MON] sampled a:53, b:46, y:99
UVM_INFO ./tb/tb_adder.sv(147) @ 56: uvm_test_top.ENV.SCO [SCO] Recived a:53, b:46, y:99
ITEM: (adder_seq_item@588) { a: 'h35  b: 'h2e  y: 'h63  } 
UVM_INFO ./tb/tb_adder.sv(151) @ 56: uvm_test_top.ENV.SCO [SCO] *** TEST PASSED ***

UVM_INFO ./tb/tb_adder.sv(44) @ 56: uvm_test_top.ENV.AGT.SQR@@SEQ [SEQ] adder item to drive a:2, b:244
UVM_INFO ./tb/tb_adder.sv(78) @ 65: uvm_test_top.ENV.AGT.DRV [DRV] Drive DUT a:2, b:244
UVM_INFO ./tb/tb_adder.sv(120) @ 66: uvm_test_top.ENV.AGT.MON [MON] sampled a:2, b:244, y:246
UVM_INFO ./tb/tb_adder.sv(147) @ 66: uvm_test_top.ENV.SCO [SCO] Recived a:2, b:244, y:246
ITEM: (adder_seq_item@588) { a: 'h2  b: 'hf4  y: 'hf6  } 
UVM_INFO ./tb/tb_adder.sv(151) @ 66: uvm_test_top.ENV.SCO [SCO] *** TEST PASSED ***

UVM_INFO ./tb/tb_adder.sv(44) @ 66: uvm_test_top.ENV.AGT.SQR@@SEQ [SEQ] adder item to drive a:12, b:142
UVM_INFO ./tb/tb_adder.sv(78) @ 75: uvm_test_top.ENV.AGT.DRV [DRV] Drive DUT a:12, b:142
UVM_INFO ./tb/tb_adder.sv(120) @ 76: uvm_test_top.ENV.AGT.MON [MON] sampled a:12, b:142, y:154
UVM_INFO ./tb/tb_adder.sv(147) @ 76: uvm_test_top.ENV.SCO [SCO] Recived a:12, b:142, y:154
ITEM: (adder_seq_item@588) { a: 'hc  b: 'h8e  y: 'h9a  } 
UVM_INFO ./tb/tb_adder.sv(151) @ 76: uvm_test_top.ENV.SCO [SCO] *** TEST PASSED ***

UVM_INFO ./tb/tb_adder.sv(44) @ 76: uvm_test_top.ENV.AGT.SQR@@SEQ [SEQ] adder item to drive a:42, b:123
UVM_INFO ./tb/tb_adder.sv(78) @ 85: uvm_test_top.ENV.AGT.DRV [DRV] Drive DUT a:42, b:123
UVM_INFO ./tb/tb_adder.sv(120) @ 86: uvm_test_top.ENV.AGT.MON [MON] sampled a:42, b:123, y:165
UVM_INFO ./tb/tb_adder.sv(147) @ 86: uvm_test_top.ENV.SCO [SCO] Recived a:42, b:123, y:165
ITEM: (adder_seq_item@588) { a: 'h2a  b: 'h7b  y: 'ha5  } 
UVM_INFO ./tb/tb_adder.sv(151) @ 86: uvm_test_top.ENV.SCO [SCO] *** TEST PASSED ***

UVM_INFO ./tb/tb_adder.sv(44) @ 86: uvm_test_top.ENV.AGT.SQR@@SEQ [SEQ] adder item to drive a:104, b:161
UVM_INFO ./tb/tb_adder.sv(78) @ 95: uvm_test_top.ENV.AGT.DRV [DRV] Drive DUT a:104, b:161
UVM_INFO ./tb/tb_adder.sv(120) @ 96: uvm_test_top.ENV.AGT.MON [MON] sampled a:104, b:161, y:265
UVM_INFO ./tb/tb_adder.sv(147) @ 96: uvm_test_top.ENV.SCO [SCO] Recived a:104, b:161, y:265
ITEM: (adder_seq_item@588) { a: 'h68  b: 'ha1  y: 'h109  } 
UVM_INFO ./tb/tb_adder.sv(151) @ 96: uvm_test_top.ENV.SCO [SCO] *** TEST PASSED ***
UVM_INFO /tools/synopsys/vcs/W-2024.09-SP1/etc/uvm-1.2/base/uvm_objection.svh(1276) @ 96: reporter [TEST_DONE] 'run' phase is ready to proceed to the 'extract' phase
UVM_INFO /tools/synopsys/vcs/W-2024.09-SP1/etc/uvm-1.2/base/uvm_report_server.svh(904) @ 96: reporter [UVM/REPORT/SERVER] 
--- UVM Report Summary ---

** Report counts by severity
UVM_INFO :   53
UVM_WARNING :    0
UVM_ERROR :    0
UVM_FATAL :    0
** Report counts by id
[DRV]    10
[MON]    10
[RNTST]     1
[SCO]    20
[SEQ]    10
[TEST_DONE]     1
[UVM/RELNOTES]     1

$finish called from file "/tools/synopsys/vcs/W-2024.09-SP1/etc/uvm-1.2/base/uvm_root.svh", line 527.
$finish at simulation time                   96
           V C S   S i m u l a t i o n   R e p o r t 
Time: 96
CPU Time:      0.140 seconds;       Data structure size:   0.2Mb
Fri May 16 09:39:42 2025
